{
  "name": "abbott-runner-api",
  "version": "0.0.0",
  "description": "",
  "sampleUrl": false,
  "apidoc": "0.2.0",
  "generator": {
    "name": "apidoc",
    "time": "2017-02-18T15:34:52.179Z",
    "url": "http://apidocjs.com",
    "version": "0.16.1"
  }
}
